<?xml version="1.0" standalone="no"?>
<!DOCTYPE svg PUBLIC "-//W3C//DTD SVG 1.1//EN" "http://www.w3.org/Graphics/SVG/1.1/DTD/svg11.dtd">
<svg xmlns="http://www.w3.org/2000/svg"><defs><font id="flaticon" horiz-adv-x="512"><font-face units-per-em="512" ascent="448" descent="-64" x-height="240" cap-height="480"/><missing-glyph horiz-adv-x="512"/><glyph unicode="&#xE000;" glyph-name="social-network292" horiz-adv-x="512" d="M0 448v-512h512V448H0zM326.96711130891 200.24860405412H272.32314241327v-182.490474601h-59.798423353814v182.490474601H172.65840019451V241.14454787837h40.210230480453V306.46876583961 c0 33.011295314155 26.761809393119 59.773104707274 59.773104707274 59.773104707274h57.76238219453v-51.894785858811h-41.611195589017c-9.0957237696102 0 -16.469779574479 -7.3740558048684 -16.469779574479 -16.469779574479v-56.732757235224h67.016347505017L326.96711130891 200.24860405412z"/><glyph unicode="&#xE001;" glyph-name="social-network301" horiz-adv-x="512" d="M355.50755562149 213.74977232174h32.110373474762v-138.10055755418c0 -8.4311092979268 -6.8360345658866 -15.267143863813 -15.267143863813 -15.267143863813H139.64921476756c-8.4311092979268 0 -15.267143863813 6.8360345658866 -15.267143863813 15.267143863813v138.10055755418h32.110373474762 c-1.5254484540543 -7.0111552044571 -2.3525242410381 -14.281826535953 -2.3525242410381 -21.748717378135c0 -56.255922725381 45.603102193541 -101.85902491892 101.85902491892 -101.85902491892c56.255922725381 0 101.85902491892 45.603102193541 101.85902491892 101.85902491892 C357.85796997532 199.46794578579 357.03300407554 206.7407270045 355.50755562149 213.74977232174zM255.99894505639 123.38963270655c37.891464434802 0 68.609312349846 30.717847915044 68.609312349846 68.609312349846 c0 37.891464434802 -30.717847915044 68.609312349846 -68.609312349846 68.609312349846c-37.891464434802 0 -68.609312349846 -30.717847915044 -68.609312349846 -68.609312349846C187.38963270655 154.10748062159 218.10748062159 123.38963270655 255.99894505639 123.38963270655zM338.20015082397 262.46284826532h26.130953116823c7.6610004656587 0 13.872508416884 6.2115079512253 13.872508416884 13.872508416884V302.46419991181c0 7.6610004656587 -6.2093980640136 13.870398529672 -13.872508416884 13.870398529672h-26.130953116823 c-7.6610004656587 0 -13.870398529672 -6.2093980640136 -13.870398529672 -13.870398529672v-26.130953116823C324.3297522943 268.67224632933 330.53915035831 262.46284826532 338.20015082397 262.46284826532zM512 448v-512H0V448H512zM419.07212764818 313.93987645621c0 22.715045721091 -18.41509558366 41.130141304751 -41.130141304751 41.130141304751H134.06012354379c-22.715045721091 0 -41.130141304751 -18.41509558366 -41.130141304751 -41.130141304751v-243.88186279964 c0 -22.715045721091 18.41509558366 -41.130141304751 41.130141304751 -41.130141304751h243.88186279964c22.715045721091 0 41.130141304751 18.41509558366 41.130141304751 41.130141304751V313.93987645621z"/><glyph unicode="&#xE002;" glyph-name="twitter25" horiz-adv-x="512" d="M0 448v-512h512V448H0zM380.064 255.648c0.128 -2.752 0.192 -5.52 0.192 -8.304c0 -84.56 -64.336 -182.128 -182.128 -182.128 c-36.16 0 -69.776 10.56 -98.128 28.752c5.024 -0.56 10.112 -0.88 15.28 -0.88c30 0 57.584 10.224 79.488 27.392 c-28 0.512 -51.648 19.008 -59.776 44.416c3.904 -0.752 7.904 -1.12 12.032 -1.12c5.84 0 11.504 0.784 16.864 2.288 c-29.248 5.872 -51.344 31.728 -51.344 62.752c0 0.272 0 0.528 0 0.8c8.656 -4.8 18.512 -7.664 29.008 -8 c-17.168 11.472 -28.464 31.072 -28.464 53.312c0 11.696 3.152 22.72 8.672 32.16c31.552 -38.72 78.736 -64.24 131.92 -66.88 c-1.072 4.688 -1.664 9.568 -1.664 14.576c0 35.344 28.656 64 64.032 64c18.352 0 35.008 -7.76 46.704 -20.224 c14.56 2.88 28.288 8.224 40.656 15.536c-4.8 -14.96 -14.944 -27.504 -28.144 -35.408c12.96 1.552 25.28 4.992 36.752 10.064 C403.424 275.904 392.576 264.656 380.064 255.648z"/></font></defs></svg>
